{
    "mongoURI": "mongodb+srv://tyler123:testpass@cluster0.doxj9.mongodb.net/test?retryWrites=true&w=majority",
    "jwt_secret": "madoricarradian",
    "github_client_id": "c8eac85fab93bdfe3c62",
    "github_secret": "29225fb5ebb67eae9164ea6702dbd04a74d6577f"
}